C:\Users\Jonathan\Documents\NetBeansProjects\unidad1\src\main\java\ciisa\unidad1\resources\JavaEE8Resource.java
C:\Users\Jonathan\Documents\NetBeansProjects\unidad1\src\main\java\ciisa\unidad1\JAXRSConfiguration.java
C:\Users\Jonathan\Documents\NetBeansProjects\unidad1\src\main\java\datos.java
C:\Users\Jonathan\Documents\NetBeansProjects\unidad1\src\main\java\calculos.java
